0	A,	-1.011627E-09A,+3.456740E+03,+0.000000E+00
0	A,	
0	A,	-6.401511E-10A,+3.461774E+03,+0.000000E+00
0	A,	
0	A,	-3.219423E-10A,+3.466874E+03,+0.000000E+00
0.5	A,	+2.403239E-09A,+3.475924E+03,+0.000000E+00
0.5	A,	+2.635536E-09A,+3.478469E+03,+0.000000E+00
0.5	A,	+2.873413E-09A,+3.480982E+03,+0.000000E+
0.5	A,	
0.5	A,	+2.410769E-09A,+3.486091E+03,+0.000000E+00
1	A,	+2.974024E-09A,+3.495141E+
1	A,	
1	A,	+2.740358E-09A,+3.500171E+03,+0.000000E+00
1	A,	+2.788941E-09A,+3.502686E+03,+0.000000E+00
1	A,	+2.390002E-09A,+3.505200E+
1.5	A,	+2.827692E-09A,+3.514253E+03,+0.000000E+00
1.5	A,	+3.011632E-09A,+3.516768E+03,+0.000000E+00
1.5	A,	+2.909674E-09A,+3.519283E
1.5	A,	
1.5	A,	+2.221307E-09A,+3.524312E+03,+0.000000E+00
2	A,	+2.715734E-09A,+3.533363E
2	A,	
2	A,	+2.477585E-09A,+3.538392E+03,+0.000000E+00
2	A,	+2.614105E-09A,+3.540906E+03,+0.000000E+00
2	A,	+2.326461E-09A,+3.543421E+
2.5	A,	+3.036712E-09A,+3.552471E+03,+0.000000E+00
2.5	A,	+2.920398E-09A,+3.554985E+03,+0.000000E+00
2.5	A,	+3.093118E-09A,+3.557499E+
2.5	A,	
2.5	A,	+3.119711E-09A,+3.562528E+03,+0.000000E+00
3	A,	+3.641145E-09A,+3.571578E+
3	A,	
3	A,	+3.266872E-09A,+3.576607E+03,+0.000000E+00
3	A,	+3.309834E-09A,+3.579122E+03,+0.000000E+00
3	A,	+3.188063E-09A,+3.581638E+
3.5	A,	+3.352733E-09A,+3.590688E+03,+0.000000E+00
3.5	A,	+3.579678E-09A,+3.593202E+03,+0.000000E+00
3.5	A,	+3.646163E-09A,+3.595717E+
3.5	A,	
3.5	A,	+3.159704E-09A,+3.600777E+03,+0.000000E+00
4	A,	+4.140008E-09A,+3.609887E+
4	A,	
4	A,	+4.014960E-09A,+3.614916E+03,+0.000000E+00
4	A,	+3.937954E-09A,+3.617431E+03,+0.000000E+00
4	A,	+4.711767E-09A,+3.619965E+
4.5	A,	+4.260055E-09A,+3.629015E+03,+0.000000E+00
4.5	A,	+5.131676E-09A,+3.631530E+03,+0.000000E+00
4.5	A,	+4.982834E-09A,+3.634045E+
4.5	A,	
4.5	A,	+5.202539E-09A,+3.639075E+03,+0.000000E+00
5	A,	+5.173083E-09A,+3.648125E+
5	A,	
5	A,	+5.144890E-09A,+3.653154E+03,+0.000000E+00
5	A,	+5.553702E-09A,+3.655669E+03,+0.000000E+00
5	A,	+5.970231E-09A,+3.658183E+
5.5	A,	+6.148821E-09A,+3.667233E+03,+0.000000E+00
5.5	A,	+6.177383E-09A,+3.669748E+03,+0.000000E+00
5.5	A,	+6.237813E-09A,+3.672263E+
5.5	A,	
5.5	A,	+6.254491E-09A,+3.677292E+03,+0.000000E+00
6	A,	+6.742984E-09A,+3.686342E
6	A,	
6	A,	+6.879089E-09A,+3.691371E+03,+0.000000E+00
6	A,	+7.488685E-09A,+3.693887E+03,+0.000000E+00
6	A,	+7.369032E-09A,+3.696400E+
6.5	A,	+8.272456E-09A,+3.705450E+03,+0.000000E+00
6.5	A,	+8.237476E-09A,+3.707966E+03,+0.000000E+00
6.5	A,	+8.175907E-09A,+3.710479E+
6.5	A,	
6.5	A,	+8.898087E-09A,+3.715509E+03,+0.000000E+00
7	A,	+8.661371E-09A,+3.724622E+
7	A,	
7	A,	+8.868068E-09A,+3.729723E+03,+0.000000E+00
7	A,	+8.978136E-09A,+3.732238E+03,+0.000000E+00
7	A,	+9.030225E-09A,+3.734754E+
7.5	A,	+1.062575E-08A,+3.743805E+03,+0.000000E+00
7.5	A,	+1.072066E-08A,+3.746342E+03,+0.000000E+00
7.5	A,	+1.010278E-08A,+3.748856E+
7.5	A,	
7.5	A,	+1.020642E-08A,+3.753887E+03,+0.000000E+00
8	A,	+1.202890E-08A,+3.763026E+03,+0.000000E+00
8	A,	+1.261450E-08A,+3.765541E+
8	A,	
8	A,	+1.193663E-08A,+3.770570E+03,+0.000000E+00
8	A,	+1.181672E-08A,+3.773085E+03,+0.000000E+00
8.5	A,	+1.423539E-08A,+3.782134E+03,+0.000000E+00
8.5	A,	+1.452593E-08A,+3.784648E+03,+0.000000E+00
8.5	A,	+1.453039E-08A,+3.787164E+
8.5	A,	
8.5	A,	+1.478914E-08A,+3.792193E+03,+0.000000E+00
9	A,	+1.700151E-08A,+3.801243E
9	A,	
9	A,	+1.733398E-08A,+3.806277E+03,+0.000000E+00
9	A,	+1.832430E-08A,+3.808792E+03,+0.000000E+00
9	A,	+1.747625E-08A,+3.811306E+
9.5	A,	
9.5	A,	+2.159044E-08A,+3.822870E+03,+0.000000E+00
9.5	A,	+2.101179E-08A,+3.825384E+03,+0.000000E+00
9.5	A,	+2.169152E-08A,+3.827898E+03,+0.000000E+00
9.5	A,	+2.177894E-08A,+3.830413E+03,+0.000000E+00
10	A,	+2.331876E-08A,+3.839463E+03,+0.000000E+00
10	A,	+2.281475E-08A,+3.841977E+03,+0.000000E+00
10	A,	+2.501771E-08A,+3.844491E+03,+0.000000E+00
10	A,	+2.455542E-08A,+3.847006E+03,+0.000000E+00
10	A,	+2.498169E-08A,+3.849521E+03,+0.000000E+00
10.5	A,	+2.924034E-08A,+3.858569E+03,+0.000000E+00
10.5	A,	+2.957418E-08A,+3.861099E+03,+0.000000E+00
10.5	A,	+2.852136E-08A,+3.863612E+03,+0.000000E+00
10.5	A,	+2.955911E-08A,+3.866159E+03,+0.000000E+00
10.5	A,	+3.021296E-08A,+3.868674E+03,+0.000000E+00
11	A,	+3.406035E-08A,+3.877725E+03,+0.000000E+00
11	A,	+3.522248E-08A,+3.880239E+03,+0.000000E+00
11	A,	+3.412319E-08A,+3.882904E+03,+0.000000E+00
11	A,	+3.359710E-08A,+3.885418E+03,+0.000000E+00
11	A,	+3.431303E-08A,+3.887948E+03,+0.000000E+00
11.5	A,	+3.762947E-08A,+3.896998E+03,+0.000000E+00
11.5	A,	+3.958243E-08A,+3.899512E+03,+0.000000E+00
11.5	A,	+4.084588E-08A,+3.902026E+03,+0.000000E+00
11.5	A,	+4.322257E-08A,+3.904541E+03,+0.000000E+00
11.5	A,	+4.285441E-08A,+3.907055E+03,+0.000000E+00
12	A,	+4.936756E-08A,+3.916164E+03,+0.000000E+00
12	A,	+4.829202E-08A,+3.918678E+03,+0.000000E+00
12	A,	+4.760395E-08A,+3.921194E+03,+0.000000E+00
12	A,	+4.897513E-08A,+3.923709E+03,+0.000000E+00
12	A,	+4.848095E-08A,+3.926224E+03,+0.000000E+00
12.5	A,	+5.826679E-08A,+3.935273E+03,+0.000000E+00
12.5	A,	+5.784519E-08A,+3.937788E+03,+0.000000E+00
12.5	A,	+5.794671E-08A,+3.940303E+03,+0.000000E+00
12.5	A,	+5.799257E-08A,+3.942817E+03,+0.000000E+00
12.5	A,	+6.140013E-08A,+3.945332E+03,+0.000000E+00
13	A,	+6.937663E-08A,+3.954381E+03,+0.000000E+00
13	A,	+6.902332E-08A,+3.956896E+03,+0.000000E+00
13	A,	+7.270580E-08A,+3.959411E+03,+0.000000E+00
13	A,	+7.359143E-08A,+3.961925E+03,+0.000000E+00
13	A,	+7.679611E-08A,+3.964439E+03,+0.000000E+00
13.5	A,	+8.567045E-08A,+3.973489E+03,+0.000000E+00
13.5	A,	+8.738186E-08A,+3.976004E+03,+0.000000E+00
13.5	A,	+8.748474E-08A,+3.978519E+03,+0.000000E+00
13.5	A,	+9.052078E-08A,+3.981032E+03,+0.000000E+00
13.5	A,	+9.116045E-08A,+3.983548E+03,+0.000000E+00
14	A,	+1.020981E-07A,+3.992627E+03,+0.000000E+00
14	A,	+1.031966E-07A,+3.995142E+03,+0.000000E+00
14	A,	+1.064675E-07A,+3.997656E+03,+0.000000E+00
14	A,	+9.985212E-08A,+4.000170E+03,+0.000000E+00
14	A,	+1.067739E-07A,+4.002752E+03,+0.000000E+00
14.5	A,	+1.111406E-07A,+4.011801E+03,+0.000000E+00
14.5	A,	+1.152043E-07A,+4.014314E+03,+0.000000E+00
14.5	A,	+1.134012E-07A,+4.016829E+03,+0.000000E+00
14.5	A,	+1.134229E-07A,+4.019345E+03,+0.000000E+00
14.5	A,	+1.222486E-07A,+4.021859E+03,+0.000000E+00
15	A,	+1.324844E-07A,+4.030923E+03,+0.000000E+00
15	A,	+1.260819E-07A,+4.033438E+03,+0.000000E+00
15	A,	+1.318710E-07A,+4.035953E+03,+0.000000E+00
15	A,	+1.324081E-07A,+4.038467E+03,+0.000000E+00
15	A,	+1.279921E-07A,+4.040981E+03,+0.000000E+00
15.5	A,	+1.489737E-07A,+4.050032E+03,+0.000000E+00
15.5	A,	+1.496861E-07A,+4.052547E+03,+0.000000E+00
15.5	A,	+1.433379E-07A,+4.055061E+03,+0.000000E+00
15.5	A,	+1.433457E-07A,+4.057575E+03,+0.000000E+00
15.5	A,	+1.475430E-07A,+4.060090E+03,+0.000000E+00
16	A,	+1.679100E-07A,+4.069139E+03,+0.000000E+00
16	A,	+1.669112E-07A,+4.071653E+03,+0.000000E+00
16	A,	+1.726766E-07A,+4.074168E+03,+0.000000E+00
16	A,	+1.794861E-07A,+4.076683E+03,+0.000000E+00
16	A,	+1.736367E-07A,+4.079196E+03,+0.000000E+00
16.5	A,	+1.943612E-07A,+4.088247E+03,+0.000000E+00
16.5	A,	+1.989389E-07A,+4.090761E+03,+0.000000E+00
16.5	A,	+1.997671E-07A,+4.093275E+03,+0.000000E+00
16.5	A,	+1.995808E-07A,+4.095790E+03,+0.000000E+00
16.5	A,	+1.928486E-07A,+4.098304E+03,+0.000000E+00
17	A,	+2.166831E-07A,+4.107353E+03,+0.000000E+00
17	A,	+2.163430E-07A,+4.109867E+03,+0.000000E+00
17	A,	+2.180546E-07A,+4.112383E+03,+0.000000E+00
17	A,	+2.196516E-07A,+4.114898E+03,+0.000000E+00
17	A,	+2.093458E-07A,+4.117413E+03,+0.000000E+00
17.5	A,	+2.501801E-07A,+4.126514E+03,+0.000000E+00
17.5	A,	+2.443733E-07A,+4.129085E+03,+0.000000E+00
17.5	A,	+2.474838E-07A,+4.131600E+03,+0.000000E+00
17.5	A,	+2.642644E-07A,+4.134117E+03,+0.000000E+00
17.5	A,	+2.503862E-07A,+4.136632E+03,+0.000000E+00
18	A,	+3.117287E-07A,+4.145766E+03,+0.000000E+00
18	A,	+3.196045E-07A,+4.148281E+03,+0.000000E+00
18	A,	+3.345114E-07A,+4.150796E+03,+0.000000E+00
18	A,	+3.346515E-07A,+4.153311E+03,+0.000000E+00
18	A,	+3.635733E-07A,+4.155825E+03,+0.000000E+00
18.5	A,	+4.081541E-07A,+4.164875E+03,+0.000000E+00
18.5	A,	+4.248620E-07A,+4.167389E+03,+0.000000E+00
18.5	A,	+4.271228E-07A,+4.169903E+03,+0.000000E+00
18.5	A,	+4.489866E-07A,+4.172417E+03,+0.000000E+00
18.5	A,	+4.501457E-07A,+4.174932E+03,+0.000000E+00
19	A,	+5.387039E-07A,+4.184037E+03,+0.000000E+00
19	A,	+5.583157E-07A,+4.186551E+03,+0.000000E+00
19	A,	+5.854946E-07A,+4.189066E+03,+0.000000E+00
19	A,	+6.226545E-07A,+4.191581E+03,+0.000000E+00
19	A,	+6.204463E-07A,+4.194095E+03,+0.000000E+00
19.5	A,	+7.743473E-07A,+4.203144E+03,+0.000000E+00
19.5	A,	+8.027787E-07A,+4.205659E+03,+0.000000E+00
19.5	A,	+8.230109E-07A,+4.208173E+03,+0.000000E+00
19.5	A,	+8.681923E-07A,+4.210688E+03,+0.000000E+00
19.5	A,	+8.589394E-07A,+4.213203E+03,+0.000000E+00
20	A,	+9.835171E-07A,+4.222259E+03,+0.000000E+00
20	A,	+1.042355E-06A,+4.224773E+03,+0.000000E+00
20	A,	+1.062260E-06A,+4.227288E+03,+0.000000E+00
20	A,	+1.065864E-06A,+4.229802E+03,+0.000000E+00
20	A,	+1.104432E-06A,+4.232316E+03,+0.000000E+00
20.5	A,	+1.190786E-06A,+4.241366E+03,+0.000000E+00
20.5	A,	+1.205160E-06A,+4.243881E+03,+0.000000E+00
20.5	A,	+1.231189E-06A,+4.246396E+03,+0.000000E+00
20.5	A,	+8.576942E-07A,+4.248913E+03,+0.000000E+00
20.5	A,	+8.814796E-07A,+4.251428E+03,+0.000000E+00
21	A,	+1.422593E-06A,+4.260563E+03,+0.000000E+00
21	A,	+1.385736E-06A,+4.263076E+03,+0.000000E+00
21	A,	+1.450749E-06A,+4.265691E+03,+0.000000E+00
21	A,	+1.656429E-06A,+4.268205E+03,+0.000000E+00
21	A,	+1.305478E-06A,+4.270720E+03,+0.000000E+00
21.5	A,	+1.278812E-06A,+4.279834E+03,+0.000000E+00
21.5	A,	+1.115622E-06A,+4.282348E+03,+0.000000E+00
21.5	A,	+1.265876E-06A,+4.284862E+03,+0.000000E+00
21.5	A,	+1.322456E-06A,+4.287376E+03,+0.000000E+00
21.5	A,	+1.335967E-06A,+4.289891E+03,+0.000000E+00
22	A,	+1.565252E-06A,+4.298940E+03,+0.000000E+00
22	A,	+1.528018E-06A,+4.301455E+03,+0.000000E+00
22	A,	+1.390608E-06A,+4.303969E+03,+0.000000E+00
22	A,	+1.376401E-06A,+4.306484E+03,+0.000000E+00
22	A,	+1.245506E-06A,+4.308999E+03,+0.000000E+00
22.5	A,	+1.621565E-06A,+4.318121E+03,+0.000000E+00
22.5	A,	+1.796914E-06A,+4.320637E+03,+0.000000E+00
22.5	A,	+2.147785E-06A,+4.323152E+03,+0.000000E+00
22.5	A,	+2.278932E-06A,+4.325666E+03,+0.000000E+00
22.5	A,	+2.436141E-06A,+4.328256E+03,+0.000000E+00
23	A,	+4.785465E-06A,+4.337370E+03,+0.000000E+00
23	A,	+4.796105E-06A,+4.339884E+03,+0.000000E+00
23	A,	+3.436164E-06A,+4.342425E+03,+0.000000E+00
23	A,	+1.206829E-06A,+4.344939E+03,+0.000000E+00
23	A,	+1.489323E-06A,+4.347509E+03,+0.000000E+00
23.5	A,	+1.594891E-06A,+4.356559E+03,+0.000000E+00
23.5	A,	+1.549578E-06A,+4.359072E+03,+0.000000E+00
23.5	A,	+1.661844E-06A,+4.361587E+03,+0.000000E+00
23.5	A,	+1.510778E-06A,+4.364102E+03,+0.000000E+00
23.5	A,	+1.476985E-06A,+4.366616E+03,+0.000000E+00
24	A,	+1.857880E-06A,+4.375666E+03,+0.000000E+00
24	A,	+2.201367E-06A,+4.378181E+03,+0.000000E+00
24	A,	+2.204669E-06A,+4.380696E+03,+0.000000E+00
24	A,	+2.398543E-06A,+4.383220E+03,+0.000000E+00
24	A,	+2.441892E-06A,+4.385734E+03,+0.000000E+00
24.5	A,	+2.340176E-06A,+4.394784E+03,+0.000000E+00
24.5	A,	+2.514395E-06A,+4.397299E+03,+0.000000E+00
24.5	A,	+2.378882E-06A,+4.399813E+03,+0.000000E+00
24.5	A,	+1.963919E-06A,+4.402327E+03,+0.000000E+00
24.5	A,	+1.941375E-06A,+4.404842E+03,+0.000000E+00
25	A,	+1.994904E-06A,+4.413892E+03,+0.000000E+00
25	A,	+2.008471E-06A,+4.416405E+03,+0.000000E+00
25	A,	+1.811672E-06A,+4.418920E+03,+0.000000E+00
25	A,	+2.218575E-06A,+4.421435E+03,+0.000000E+00
25	A,	+2.352220E-06A,+4.423949E+03,+0.000000E+00
25.5	A,	+1.937019E-06A,+4.433000E+03,+0.000000E+00
25.5	A,	+2.023166E-06A,+4.4355
25.5	A,	+1.946669E-06A,+4.438030E+03,+0.000000E+00
25.5	A,	+2.085731E-06A,+4.440544E+03,+0.000000E+00
25.5	A,	+2.208865E-06A,+4.443059E+03,+0.000000E+00
26	A,	+2.115142E-06A,+4.452107E+03,+0.000000E+00
26	A,	+2.100560E-06A,+4.454630E+03,+0.000000E+00
26	A,	+2.154460E-06A,+4.457145E+03,+0.000000E+00
26	A,	+2.203011E-06A,+4.459659E+03,+0.000000E+00
26	A,	+2.249384E-06A,+4.462174E+03,+0.000000E+00
26.5	A,	+2.151312E-06A,+4.471225E+03,+0.000000E+00
26.5	A,	+2.163647E-06A,+4.473738E+03,+0.000000E+00
26.5	A,	+2.209263E-06A,+4.476254E+03,+0.000000E+00
26.5	A,	+2.135695E-06A,+4.478769E+03,+0.000000E+00
26.5	A,	+2.237228E-06A,+4.481283E+03,+0.000000E+00
27	A,	+2.416250E-06A,+4.490407E+03,+0.000000E+00
27	A,	+2.395274E-06A,+4.492990E+03,+0.000000E+00
27	A,	+2.440605E-06A,+4.495521E+03,+0.000000E+00
27	A,	+2.323543E-06A,+4.498036E+03,+0.000000E+00
27	A,	+2.453590E-06A,+4.500617E+03,+0.000000E+00
27.5	A,	+2.714047E-06A,+4.509666E+03,+0.000000E+00
27.5	A,	+2.611821E-06A,+4.512181E+03,+0.000000E+00
27.5	A,	+2.739367E-06A,+4.514719E+03,+0.000000E+00
27.5	A,	+2.712580E-06A,+4.517232E+03,+0.000000E+00
27.5	A,	+2.643484E-06A,+4.519764E+03,+0.000000E+00
28	A,	+2.728025E-06A,+4.528882E+03,+0.000000E+00
28	A,	+2.840188E-06A,+4.531396E+03,+0.000000E+00
28	A,	+2.796744E-06A,+4.533911E+03,+0.000000E+00
28	A,	+2.907707E-06A,+4.536426E+03,+0.000000E+00
28	A,	+2.976977E-06A,+4.538940E+03,+0.000000E+00
28.5	A,	+3.018081E-06A,+4.548104E+03,+0.000000E+00
28.5	A,	+2.980966E-06A,+4.550618E+03,+0.000000E+00
28.5	A,	+2.590335E-06A,+4.553133E+03,+0.000000E+00
28.5	A,	+2.741569E-06A,+4.555647E+03,+0.000000E+00
28.5	A,	+2.707147E-06A,+4.558162E+03,+0.000000E+00
29	A,	+2.790478E-06A,+4.567213E+03,+0.000000E+00
29	A,	+2.914582E-06A,+4.569727E+03,+0.000000E+00
29	A,	+2.839034E-06A,+4.572242E+03,+0.000000E+00
29	A,	+2.766935E-06A,+4.574762E+03,+0.000000E+00
29	A,	+2.832204E-06A,+4.577276E+03,+0.000000E+00
29.5	A,	+3.110016E-06A,+4.586387E+03,+0.000000E+00
29.5	A,	+3.042454E-06A,+4.588901E+03,+0.000000E+00
29.5	A,	+2.983337E-06A,+4.591416E+03,+0.000000E+00
29.5	A,	+3.147157E-06A,+4.593931E+03,+0.000000E+00
29.5	A,	+3.105439E-06A,+4.596445E+03,+0.000000E+00
30	A,	+3.183783E-06A,+4.605695E+03,+0.000000E+00
30	A,	+3.181271E-06A,+4.608211E+03,+0.000000E+00
30	A,	+3.267869E-06A,+4.610852E+03,+0.000000E+00
30	A,	+3.215173E-06A,+4.613366E+03,+0.000000E+00
30	A,	+3.304199E-06A,+4.615881E+03,+0.000000E+00
30.5	A,	+3.827674E-06A,+4.624932E+03,+0.000000E+00
30.5	A,	+3.877496E-06A,+4.627447E+03,+0.000000E+00
30.5	A,	+3.478258E-06A,+4.629963E+03,+0.000000E+00
30.5	A,	+3.779438E-06A,+4.632543E+03,+0.000000E+00
30.5	A,	+3.667139E-06A,+4.635058E+03,+0.000000E+00
31	A,	+3.955692E-06A,+4.644217E+03,+0.000000E+00
31	A,	+4.226260E-06A,+4.646731E+03,+0.000000E+00
31	A,	+4.135984E-06A,+4.649286E+03,+0.000000E+00
31	A,	+3.701933E-06A,+4.651801E+03,+0.000000E+00
31	A,	+3.859275E-06A,+4.654315E+03,+0.000000E+00
31.5	A,	+4.062716E-06A,+4.663438E+03,+0.000000E+00
31.5	A,	+4.193823E-06A,+4.665953E+03,+0.000000E+00
31.5	A,	+3.876130E-06A,+4.668563E+03,+0.000000E+00
31.5	A,	+4.298985E-06A,+4.671077E+03,+0.000000E+00
31.5	A,	+4.543834E-06A,+4.673592E+03,+0.000000E+00
32	A,	+4.094475E-06A,+4.682642E+03,+0.000000E+00
32	A,	+4.393332E-06A,+4.685156E+03,+0.000000E+00
32	A,	+4.868577E-06A,+4.687671E+03,+0.000000E+00
32	A,	+3.904170E-06A,+4.690186E+03,+0.000000E+00
32	A,	+3.595386E-06A,+4.692700E+03,+0.000000E+00
32.5	A,	+4.066381E-06A,+4.701845E+03,+0.000000E+00
32.5	A,	+3.426145E-06A,+4.704359E+03,+0.000000E+00
32.5	A,	+4.263992E-06A,+4.706895E+03,+0.000000E+00
32.5	A,	+3.962131E-06A,+4.709409E+03,+0.000000E+00
32.5	A,	+4.001405E-06A,+4.711924E+03,+0.000000E+00
33	A,	+4.529504E-06A,+4.721110E+03,+0.000000E+00
33	A,	+4.833652E-06A,+4.723625E+03,+0.000000E+00
33	A,	+5.044893E-06A,+4.726202E+03,+0.000000E+00
33	A,	+4.587618E-06A,+4.728716E+03,+0.000000E+00
33	A,	+4.799498E-06A,+4.731230E+03,+0.000000E+00
33.5	A,	+5.356662E-06A,+4.740279E+03,+0.000000E+00
33.5	A,	+4.747285E-06A,+4.742793E+03,+0.000000E+00
33.5	A,	+4.778281E-06A,+4.745309E+03,+0.000000E+00
33.5	A,	+4.389365E-06A,+4.747824E+03,+0.000000E+00
33.5	A,	+5.307329E-06A,+4.750339E+03,+0.000000E+00
34	A,	+4.977124E-06A,+4.759388E+03,+0.000000E+00
34	A,	+4.758259E-06A,+4.761902E+03,+0.000000E+00
34	A,	+4.772386E-06A,+4.764454E+03,+0.000000E+00
34	A,	+4.737380E-06A,+4.766968E+03,+0.000000E+00
34	A,	+5.125690E-06A,+4.769481E+03,+0.000000E+00
34.5	A,	+4.637069E-06A,+4.778628E+03,+0.000000E+00
34.5	A,	+4.315672E-06A,+4.781166E+03,+0.000000E+00
34.5	A,	+4.143566E-06A,+4.783750E+03,+0.000000E+00
34.5	A,	+4.229579E-06A,+4.786265E+03,+0.000000E+00
34.5	A,	+4.380067E-06A,+4.788809E+03,+0.000000E+00
35	A,	+4.524034E-06A,+4.797859E+03,+0.000000E+00
35	A,	+4.233194E-06A,+4.800375E+03,+0.000000E+00
35	A,	+4.288212E-06A,+4.802935E+03,+0.000000E+00
35	A,	+4.066431E-06A,+4.805512E+03,+0.000000E+00
35	A,	+4.276757E-06A,+4.808025E+03,+0.000000E+00
35.5	A,	+4.862945E-06A,+4.817075E+03,+0.000000E+00
35.5	A,	+4.894884E-06A,+4.819591E+03,+0.000000E+00
35.5	A,	+4.920694E-06A,+4.822173E+03,+0.000000E+00
35.5	A,	+4.604541E-06A,+4.824688E+03,+0.000000E+00
35.5	A,	+4.867322E-06A,+4.827202E+03,+0.000000E+00
36	A,	+5.390750E-06A,+4.836291E+03,+0.000000E+00
36	A,	+4.304094E-06A,+4.838806E+03,+0.000000E+00
36	A,	+4.622978E-06A,+4.841358E+03,+0.000000E+00
36	A,	+4.730732E-06A,+4.843874E+03,+0.000000E+00
36	A,	+5.273206E-06A,+4.846389E+03,+0.000000E+00
36.5	A,	+4.459046E-06A,+4.855438E+03,+0.000000E+00
36.5	A,	+4.061993E-06A,+4.857953E+03,+0.000000E+00
36.5	A,	+3.453790E-06A,+4.860469E+03,+0.000000E+00
36.5	A,	+3.643483E-06A,+4.863017E+03,+0.000000E+00
36.5	A,	+3.864997E-06A,+4.865531E+03,+0.000000E+00
37	A,	+3.931782E-06A,+4.874581E+03,+0.000000E+00
37	A,	+4.222852E-06A,+4.877096E+03,+0.000000E+00
37	A,	+4.519774E-06A,+4.879711E+03,+0.000000E+00
37	A,	+3.951719E-06A,+4.882271E+03,+0.000000E+00
37	A,	+3.836148E-06A,+4.884786E+03,+0.000000E+00
37.5	A,	+4.854190E-06A,+4.893950E+03,+0.000000E+00
37.5	A,	+4.516210E-06A,+4.896466E+03,+0.000000E+00
37.5	A,	+4.353215E-06A,+4.899009E+03,+0.000000E+00
37.5	A,	+4.876550E-06A,+4.901524E+03,+0.000000E+00
37.5	A,	+5.089998E-06A,+4.904095E+03,+0.000000E+00
38	A,	+4.753266E-06A,+4.913144E+03,+0.000000E+00
38	A,	+4.356281E-06A,+4.915658E+03,+0.000000E+00
38	A,	+4.645303E-06A,+4.918173E+03,+0.000000E+00
38	A,	+4.232877E-06A,+4.920688E+03,+0.000000E+00
38	A,	+4.126835E-06A,+4.923201E+03,+0.000000E+00
38.5	A,	+4.246858E-06A,+4.932287E+03,+0.000000E+00
38.5	A,	+4.625348E-06A,+4.934802E+03,+0.000000E+00
38.5	A,	+5.074654E-06A,+4.937316E+03,+0.000000E+00
38.5	A,	+4.778614E-06A,+4.939831E+03,+0.000000E+00
38.5	A,	+5.501733E-06A,+4.942346E+03,+0.000000E+00
39	A,	+4.607221E-06A,+4.951396E+03,+0.000000E+00
39	A,	+4.598087E-06A,+4.953909E+03,+0.000000E+00
39	A,	+4.620191E-06A,+4.956425E+03,+0.000000E+00
39	A,	+4.828775E-06A,+4.958939E+03,+0.000000E+00
39	A,	+4.853637E-06A,+4.961454E+03,+0.000000E+00
39.5	A,	+5.057352E-06A,+4.970641E+03,+0.000000E+00
39.5	A,	+5.299538E-06A,+4.973154E+03,+0.000000E+00
39.5	A,	+5.373806E-06A,+4.975669E+03,+0.000000E+00
39.5	A,	+4.957014E-06A,+4.978183E+03,+0.000000E+00
39.5	A,	+5.091184E-06A,+4.980732E+03,+0.000000E+00
40	A,	+5.399065E-06A,+4.989794E+03,+0.000000E+00
40	A,	+5.185996E-06A,+4.992309E+03,+0.000000E+00
40	A,	+5.415377E-06A,+4.994824E+03,+0.000000E+00
40	A,	+5.629234E-06A,+4.997384E+03,+0.000000E+00
40	A,	+5.877854E-06A,+4.999898E+03,+0.000000E+00
40.5	A,	+5.207213E-06A,+5.008950E+03,+0.000000E+00
40.5	A,	+5.368169E-06A,+5.011464E+03,+0.000000E+00
40.5	A,	+5.219529E-06A,+5.014041E+03,+0.000000E+00
40.5	A,	+5.717534E-06A,+5.016556E+03,+0.000000E+00
40.5	A,	+5.991607E-06A,+5.019070E+03,+0.000000E+00
41	A,	+5.829151E-06A,+5.028121E+03,+0.000000E+00
41	A,	+5.604337E-06A,+5.030636E+03,+0.000000E+00
41	A,	+5.228502E-06A,+5.033226E+03,+0.000000E+00
41	A,	+5.502456E-06A,+5.035740E+03,+0.000000E+00
41	A,	+5.774476E-06A,+5.038255E+03,+0.000000E+00
41.5	A,	+5.791329E-06A,+5.047303E+03,+0.000000E+00
41.5	A,	+5.785253E-06A,+5.049865E+03,+0.000000E+00
41.5	A,	+5.889680E-06A,+5.052379E+03,+0.000000E+00
41.5	A,	+5.975238E-06A,+5.054895E+03,+0.000000E+00
41.5	A,	+5.626892E-06A,+5.057409E+03,+0.000000E+00
42	A,	+5.914121E-06A,+5.066459E+03,+0.000000E+00
42	A,	+6.093874E-06A,+5.068975E+03,+0.000000E+00
42	A,	+6.074963E-06A,+5.071489E+03,+0.000000E+00
42	A,	+6.207041E-06A,+5.074004E+03,+0.000000E+00
42	A,	+6.337368E-06A,+5.076521E+03,+0.000000E+00
42.5	A,	+6.323315E-06A,+5.085570E+03,+0.000000E+00
42.5	A,	+6.584402E-06A,+5.088085E+03,+0.000000E+00
42.5	A,	+6.487391E-06A,+5.090667E+03,+0.000000E+00
42.5	A,	+6.584224E-06A,+5.093182E+03,+0.000000E+00
42.5	A,	+6.719486E-06A,+5.095760E+03,+0.000000E+00
43	A,	+5.610597E-06A,+5.104809E+03,+0.000000E+00
43	A,	+5.721483E-06A,+5.107323E+03,+0.000000E+00
43	A,	+5.596408E-06A,+5.109838E+03,+0.000000E+00
43	A,	+5.870152E-06A,+5.112352E+03,+0.000000E+00
43	A,	+5.488148E-06A,+5.114997E+03,+0.000000E+00
43.5	A,	+5.585104E-06A,+5.124047E+03,+0.000000E+00
43.5	A,	+5.730514E-06A,+5.126562E+03,+0.000000E+00
43.5	A,	+5.762838E-06A,+5.129075E+03,+0.000000E+00
43.5	A,	+5.859529E-06A,+5.131590E+03,+0.000000E+00
43.5	A,	+5.864102E-06A,+5.134104E+03,+0.000000E+00
44	A,	+6.716890E-06A,+5.143153E+03,+0.000000E+00
44	A,	+6.277571E-06A,+5.145668E+03,+0.000000E+00
44	A,	+6.490883E-06A,+5.148223E+03,+0.000000E+00
44	A,	+6.711470E-06A,+5.150738E+03,+0.000000E+00
44	A,	+6.792381E-06A,+5.153294E+03,+0.000000E+00
44.5	A,	+7.658159E-06A,+5.162343E+03,+0.000000E+00
44.5	A,	+7.487763E-06A,+5.164857E+03,+0.000000E+00
44.5	A,	+8.000100E-06A,+5.167372E+03,+0.000000E+00
44.5	A,	+7.591285E-06A,+5.169887E+03,+0.000000E+00
44.5	A,	+7.905409E-06A,+5.172448E+03,+0.000000E+00
45	A,	+6.568639E-06A,+5.181497E+03,+0.000000E+00
45	A,	+6.872565E-06A,+5.184074E+03,+0.000000E+00
45	A,	+6.757018E-06A,+5.186590E+03,+0.000000E+00
45	A,	+7.337237E-06A,+5.189200E+03,+0.000000E+00
45	A,	+6.721613E-06A,+5.191715E+03,+0.000000E+00
45.5	A,	+6.672817E-06A,+5.200835E+03,+0.000000E+00
45.5	A,	+6.639933E-06A,+5.203349E+03,+0.000000E+00
45.5	A,	+6.515028E-06A,+5.205865E+03,+0.000000E+00
45.5	A,	+5.831411E-06A,+5.208380E+03,+0.000000E+00
45.5	A,	+5.688545E-06A,+5.210961E+03,+0.000000E+00
46	A,	+6.810524E-06A,+5.220070E+03,+0.000000E+00
46	A,	+7.003905E-06A,+5.222584E+03,+0.000000E+00
46	A,	+7.420336E-06A,+5.225099E+03,+0.000000E+00
46	A,	+7.061239E-06A,+5.227613E+03,+0.000000E+00
46	A,	+6.760882E-06A,+5.230169E+03,+0.000000E+00
46.5	A,	+6.984490E-06A,+5.239236E+03,+0.000000E+00
46.5	A,	+8.087092E-06A,+5.241751E+03,+0.000000E+00
46.5	A,	+7.436726E-06A,+5.244266E+03,+0.000000E+00
46.5	A,	+7.606352E-06A,+5.246821E+03,+0.000000E+00
46.5	A,	+7.615280E-06A,+5.249336E+03,+0.000000E+00
47	A,	+5.822554E-06A,+5.258479E+03,+0.000000E+00
47	A,	+5.678718E-06A,+5.260993E+03,+0.000000E+00
47	A,	+5.881424E-06A,+5.263508E+03,+0.000000E+00
47	A,	+5.894280E-06A,+5.266022E+03,+0.000000E+00
47	A,	+5.907348E-06A,+5.268583E+03,+0.000000E+00
47.5	A,	+5.809092E-06A,+5.277632E+03,+0.000000E+00
47.5	A,	+5.812284E-06A,+5.280146E+03,+0.000000E+00
47.5	A,	+5.881062E-06A,+5.282691E+03,+0.000000E+00
47.5	A,	+5.872126E-06A,+5.285207E+03,+0.000000E+00
47.5	A,	+6.709734E-06A,+5.287722E+03,+0.000000E+00
48	A,	+5.613529E-06A,+5.296839E+03,+0.000000E+00
48	A,	+5.628079E-06A,+5.299354E+03,+0.000000E+00
48	A,	+5.583604E-06A,+5.301867E+03,+0.000000E+00
48	A,	+5.507631E-06A,+5.304382E+03,+0.000000E+00
48	A,	+5.721079E-06A,+5.306896E+03,+0.000000E+00
48.5	A,	+6.296106E-06A,+5.315946E+03,+0.000000E+00
48.5	A,	+6.317451E-06A,+5.318461E+03,+0.000000E+00
48.5	A,	+6.495737E-06A,+5.320975E+03,+0.000000E+00
48.5	A,	+6.421423E-06A,+5.323611E+03,+0.000000E+00
48.5	A,	+6.579879E-06A,+5.326125E+03,+0.000000E+00
49	A,	+6.030585E-06A,+5.335198E+03,+0.000000E+00
49	A,	+6.124279E-06A,+5.337713E+03,+0.000000E+00
49	A,	+6.433916E-06A,+5.340228E+03,+0.000000E+00
49	A,	+6.485036E-06A,+5.342741E+03,+0.000000E+00
49	A,	+6.650943E-06A,+5.345257E+03,+0.000000E+00
49.5	A,	+6.340597E-06A,+5.354306E+03,+0.000000E+00
49.5	A,	+6.739223E-06A,+5.356820E+03,+0.000000E+00
49.5	A,	+6.361438E-06A,+5.359335E+03,+0.000000E+00
49.5	A,	+6.456493E-06A,+5.361850E+03,+0.000000E+00
49.5	A,	+6.488826E-06A,+5.364363E+03,+0.000000E+00
50	A,	+6.297767E-06A,+5.373414E+03,+0.000000E+00
50	A,	+6.324408E-06A,+5.375928E+03,+0.000000E+00
50	A,	+6.329859E-06A,+5.378442E+03,+0.000000E+00
50	A,	+6.530258E-06A,+5.380957E+03,+0.000000E+00
50	A,	+6.229558E-06A,+5.383472E+03,+0.000000E+00
50.5	A,	+6.492027E-06A,+5.392521E+03,+0.000000E+00
50.5	A,	+6.338078E-06A,+5.395036E+03,+0.000000E+00
50.5	A,	+6.282668E-06A,+5.397550E+03,+0.000000E+00
50.5	A,	+6.287351E-06A,+5.400064E+03,+0.000000E+00
50.5	A,	+6.391601E-06A,+5.402580E+03,+0.000000E+00
51	A,	+6.844487E-06A,+5.411630E+03,+0.000000E+00
51	A,	+6.442795E-06A,+5.414145E+03,+0.000000E+00
51	A,	+6.269776E-06A,+5.416660E+03,+0.000000E+00
51	A,	+6.438067E-06A,+5.419176E+03,+0.000000E+00
51	A,	+6.525044E-06A,+5.421690E+03,+0.000000E+00
51.5	A,	+6.575098E-06A,+5.430782E+03,+0.000000E+00
51.5	A,	+7.210702E-06A,+5.433321E+03,+0.000000E+00
51.5	A,	+6.706724E-06A,+5.435836E+03,+0.000000E+00
51.5	A,	+6.405762E-06A,+5.438366E+03,+0.000000E+00
51.5	A,	+6.959303E-06A,+5.440881E+03,+0.000000E+00
52	A,	+7.288969E-06A,+5.450022E+03,+0.000000E+00
52	A,	+7.644900E-06A,+5.452537E+03,+0.000000E+00
52	A,	+6.801114E-06A,+5.455104E+03,+0.000000E+00
52	A,	+6.787937E-06A,+5.457619E+03,+0.000000E+00
52	A,	+6.883665E-06A,+5.460135E+03,+0.000000E+00
52.5	A,	+6.815147E-06A,+5.469185E+03,+0.000000E+00
52.5	A,	+6.871803E-06A,+5.471699E+03,+0.000000E+00
52.5	A,	+6.584264E-06A,+5.474214E+03,+0.000000E+00
52.5	A,	+6.956765E-06A,+5.476766E+03,+0.000000E+00
52.5	A,	+6.738068E-06A,+5.479281E+03,+0.000000E+00
53	A,	+6.649607E-06A,+5.488358E+03,+0.000000E+00
53	A,	+6.676698E-06A,+5.490874E+03,+0.000000E+00
53	A,	+6.755036E-06A,+5.493388E+03,+0.000000E+00
53	A,	+6.982266E-06A,+5.495902E+03,+0.000000E+00
53	A,	+7.006312E-06A,+5.498417E+03,+0.000000E+00
53.5	A,	+7.336940E-06A,+5.507468E+03,+0.000000E+00
53.5	A,	+7.383611E-06A,+5.509982E+03,+0.000000E+00
53.5	A,	+8.141277E-06A,+5.512567E+03,+0.000000E+00
53.5	A,	+7.611276E-06A,+5.515082E+03,+0.000000E+00
53.5	A,	+7.510597E-06A,+5.517660E+03,+0.000000E+00
54	A,	+7.144667E-06A,+5.526709E+03,+0.000000E+00
54	A,	+7.034467E-06A,+5.529440E+03,+0.000000E+00
54	A,	+6.858674E-06A,+5.531956E+03,+0.000000E+00
54	A,	+6.548009E-06A,+5.534470E+03,+0.000000E+00
54	A,	+6.765812E-06A,+5.536984E+03,+0.000000E+00
54.5	A,	+7.015773E-06A,+5.546137E+03,+0.000000E+00
54.5	A,	+6.979082E-06A,+5.548652E+03,+0.000000E+00
54.5	A,	+7.362710E-06A,+5.551166E+03,+0.000000E+00
54.5	A,	+7.202781E-06A,+5.553681E+03,+0.000000E+00
54.5	A,	+7.029507E-06A,+5.556194E+03,+0.000000E+00
55	A,	+6.447722E-06A,+5.565243E+03,+0.000000E+00
55	A,	+6.500316E-06A,+5.567758E+03,+0.000000E+00
55	A,	+6.341940E-06A,+5.570339E+03,+0.000000E+00
55	A,	+6.532692E-06A,+5.572854E+03,+0.000000E+00
55	A,	+6.556876E-06A,+5.575443E+03,+0.000000E+00
55.5	A,	+7.606967E-06A,+5.584493E+03,+0.000000E+00
55.5	A,	+7.610050E-06A,+5.587084E+03,+0.000000E+00
55.5	A,	+7.633563E-06A,+5.589598E+03,+0.000000E+00
55.5	A,	+7.742694E-06A,+5.592113E+03,+0.000000E+00
55.5	A,	+7.394395E-06A,+5.594628E+03,+0.000000E+00
56	A,	+8.218215E-06A,+5.603678E+03,+0.000000E+00
56	A,	+8.791827E-06A,+5.606192E+03,+0.000000E+00
56	A,	+8.454666E-06A,+5.608707E+03,+0.000000E+00
56	A,	+8.267820E-06A,+5.611221E+03,+0.000000E+00
56	A,	+8.014573E-06A,+5.613735E+03,+0.000000E+00
56.5	A,	+8.808880E-06A,+5.622785E+03,+0.000000E+00
56.5	A,	+8.506343E-06A,+5.625299E+03,+0.000000E+00
56.5	A,	+8.241941E-06A,+5.627813E+03,+0.000000E+00
56.5	A,	+8.076054E-06A,+5.630328E+03,+0.000000E+00
56.5	A,	+8.119929E-06A,+5.632843E+03,+0.000000E+00
57	A,	+8.063533E-06A,+5.641892E+03,+0.000000E+00
57	A,	+7.021062E-06A,+5.644406E+03,+0.000000E+00
57	A,	+7.641327E-06A,+5.646922E+03,+0.000000E+00
57	A,	+7.102764E-06A,+5.649437E+03,+0.000000E+00
57	A,	+7.193945E-06A,+5.651974E+03,+0.000000E+00
57.5	A,	+7.900378E-06A,+5.661022E+03,+0.000000E+00
57.5	A,	+7.166566E-06A,+5.663537E+03,+0.000000E+00
57.5	A,	+7.785747E-06A,+5.666052E+03,+0.000000E+00
57.5	A,	+7.753873E-06A,+5.668565E+03,+0.000000E+00
57.5	A,	+7.613224E-06A,+5.671080E+03,+0.000000E+00
58	A,	+7.614684E-06A,+5.680171E+03,+0.000000E+00
58	A,	+8.197899E-06A,+5.682686E+03,+0.000000E+00
58	A,	+8.347876E-06A,+5.685287E+03,+0.000000E+00
58	A,	+8.572304E-06A,+5.687802E+03,+0.000000E+00
58	A,	+8.606004E-06A,+5.690315E+03,+0.000000E+00
58.5	A,	+9.320938E-06A,+5.699366E+03,+0.000000E+00
58.5	A,	+8.750197E-06A,+5.701881E+03,+0.000000E+00
58.5	A,	+9.275658E-06A,+5.704396E+03,+0.000000E+00
58.5	A,	+8.657288E-06A,+5.706913E+03,+0.000000E+00
58.5	A,	+8.560552E-06A,+5.709426E+03,+0.000000E+00
59	A,	+8.343267E-06A,+5.718477E+03,+0.000000E+00
59	A,	+7.982977E-06A,+5.720991E+03,+0.000000E+00
59	A,	+7.903993E-06A,+5.723582E+03,+0.000000E+00
59	A,	+8.091717E-06A,+5.726098E+03,+0.000000E+00
59	A,	+8.019878E-06A,+5.728611E+03,+0.000000E+00
59.5	A,	+8.731666E-06A,+5.737699E+03,+0.000000E+00
59.5	A,	+8.915051E-06A,+5.740214E+03,+0.000000E+00
59.5	A,	+9.005980E-06A,+5.742772E+03,+0.000000E+00
59.5	A,	+9.025547E-06A,+5.745287E+03,+0.000000E+00
59.5	A,	+9.008410E-06A,+5.747802E+03,+0.000000E+00
60	A,	+9.247608E-06A,+5.756853E+03,+0.000000E+00
60	A,	+8.963547E-06A,+5.759367E+03,+0.000000E+00
60	A,	+8.877967E-06A,+5.761883E+03,+0.000000E+00
60	A,	+8.823486E-06A,+5.764397E+03,+0.000000E+00
60	A,	+8.590660E-06A,+5.766912E+03,+0.000000E+00
60.5	A,	+9.156401E-06A,+5.775962E+03,+0.000000E+00
60.5	A,	+8.613001E-06A,+5.778477E+03,+0.000000E+00
60.5	A,	+8.670922E-06A,+5.780991E+03,+0.000000E+00
60.5	A,	+8.723069E-06A,+5.783505E+03,+0.000000E+00
60.5	A,	+8.707730E-06A,+5.786021E+03,+0.000000E+00
61	A,	+9.394415E-06A,+5.795071E+03,+0.000000E+00
61	A,	+9.067930E-06A,+5.797586E+03,+0.000000E+00
61	A,	+9.131373E-06A,+5.800100E+03,+0.000000E+00
61	A,	+9.217834E-06A,+5.802614E+03,+0.000000E+00
61	A,	+8.759890E-06A,+5.805129E+03,+0.000000E+00
61.5	A,	+8.861993E-06A,+5.814179E+03,+0.000000E+00
61.5	A,	+8.501984E-06A,+5.816692E+03,+0.000000E+00
61.5	A,	+8.942142E-06A,+5.819207E+03,+0.000000E+00
61.5	A,	+8.855272E-06A,+5.821722E+03,+0.000000E+00
61.5	A,	+8.800563E-06A,+5.824236E+03,+0.000000E+00
62	A,	+8.426883E-06A,+5.833286E+03,+0.000000E+00
62	A,	+8.580942E-06A,+5.835801E+03,+0.000000E+00
62	A,	+8.697026E-06A,+5.838315E+03,+0.000000E+00
62	A,	+8.221859E-06A,+5.840831E+03,+0.000000E+00
62	A,	+8.802888E-06A,+5.843345E+03,+0.000000E+00
62.5	A,	+9.025771E-06A,+5.852395E+03,+0.000000E+00
62.5	A,	+7.946986E-06A,+5.854910E+03,+0.000000E+00
62.5	A,	+8.321824E-06A,+5.857426E+03,+0.000000E+00
62.5	A,	+7.807664E-06A,+5.859941E+03,+0.000000E+00
62.5	A,	+7.650332E-06A,+5.862456E+03,+0.000000E+00
63	A,	+8.599490E-06A,+5.871506E+03,+0.000000E+00
63	A,	+7.863303E-06A,+5.874021E+03,+0.000000E+00
63	A,	+8.277572E-06A,+5.876535E+03,+0.000000E+00
63	A,	+8.052164E-06A,+5.879050E+03,+0.000000E+00
63	A,	+7.996821E-06A,+5.881564E+03,+0.000000E+00
63.5	A,	+7.407443E-06A,+5.890729E+03,+0.000000E+00
63.5	A,	+7.507514E-06A,+5.893291E+03,+0.000000E+00
63.5	A,	+7.077218E-06A,+5.895807E+03,+0.000000E+00
63.5	A,	+7.432131E-06A,+5.898342E+03,+0.000000E+00
63.5	A,	+7.825178E-06A,+5.900855E+03,+0.000000E+00
64	A,	+7.599701E-06A,+5.909995E+03,+0.000000E+00
64	A,	+7.215186E-06A,+5.912510E+03,+0.000000E+00
64	A,	+7.379970E-06A,+5.915076E+03,+0.000000E+00
64	A,	+8.020032E-06A,+5.917592E+03,+0.000000E+00
64	A,	+7.876634E-06A,+5.920107E+03,+0.000000E+00
64.5	A,	+7.097348E-06A,+5.929156E+03,+0.000000E+00
64.5	A,	+7.139166E-06A,+5.931672E+03,+0.000000E+00
64.5	A,	+7.604674E-06A,+5.934188E+03,+0.000000E+00
64.5	A,	+7.361425E-06A,+5.936702E+03,+0.000000E+00
64.5	A,	+7.231565E-06A,+5.939218E+03,+0.000000E+00
65	A,	+8.725033E-06A,+5.948353E+03,+0.000000E+00
65	A,	+8.130552E-06A,+5.950867E+03,+0.000000E+00
65	A,	+8.158555E-06A,+5.953382E+03,+0.000000E+00
65	A,	+7.681075E-06A,+5.955896E+03,+0.000000E+00
65	A,	+7.876310E-06A,+5.958411E+03,+0.000000E+00
65.5	A,	+8.002786E-06A,+5.967461E+03,+0.000000E+00
65.5	A,	+7.966642E-06A,+5.970013E+03,+0.000000E+00
65.5	A,	+8.203445E-06A,+5.972527E+03,+0.000000E+00
65.5	A,	+7.523211E-06A,+5.975041E+03,+0.000000E+00
65.5	A,	+7.049699E-06A,+5.977555E+03,+0.000000E+00
66	A,	+7.093577E-06A,+5.986666E+03,+0.000000E+00
66	A,	+7.696654E-06A,+5.989181E+03,+0.000000E+00
66	A,	+6.825794E-06A,+5.991694E+03,+0.000000E+00
66	A,	+7.104960E-06A,+5.994209E+03,+0.000000E+00
66	A,	+7.426634E-06A,+5.996724E+03,+0.000000E+00
66.5	A,	+7.538025E-06A,+6.006500E+03,+0.000000E+00
66.5	A,	+8.032840E-06A,+6.009015E+03,+0.000000E+00
66.5	A,	+7.268025E-06A,+6.011563E+03,+0.000000E+00
66.5	A,	+7.017650E-06A,+6.014076E+03,+0.000000E+00
66.5	A,	+7.368303E-06A,+6.016625E+03,+0.000000E+00
0	A,	-7.015778E-09A,+6.025692E+
0	A,	
0	A,	-4.186669E-09A,+6.030723E+03,+0.000000E+00
0	A,	-2.646086E-09A,+6.033236E+03,+0.000000E+00
0	A,	-3.010321E-09A,+6.035751E
0.5	A,	+1.388933E-09A,+6.044939E+03,+0.000000E+00
0.5	A,	
0.5	A,	+1.306283E-09A,+6.050066E+03,+0.000000E+00
0.5	A,	
0.5	A,	+1.145114E-09A,+6.055156E+03,+0.000000E+00
1	A,	+1.429758E-10A,+6.064271E+03,+0.000000E+00
1	A,	
1	A,	+1.492246E-09A,+6.069371E+03,+0.000000E+00
1	A,	
1	A,	+1.530384E-09A,+6.074583E+03,+0.000000E+00
1.5	A,	
1.5	A,	+1.788503E-09A,+6.086151E+03,+0.000000E+00
1.5	A,	+2.040482E-09A,+6.088666E+03,+0.000000E+00
1.5	A,	+2.043594E-09A,+6.091246
1.5	A,	
